…
month_df = 
  tibble(
    month = 1:12,
    month_name = month.name
  )

precip_df = 
  bind_rows(precip_2017, precip_2018)

left_join(precip_df, month_df, by = "month")
```

    ## # A tibble: 24 x 4
    ##    year month total month_name
    ##   <dbl> <dbl> <dbl> <chr>     
    ## 1  2017     1  2.34 January   
    ## 2  2017     2  1.46 February  
    ## 3  2017     3  3.57 March     
    ## # … with 21 more rows
…
subway_tidy_data = 
  pivot_longer(
    subway_df,
    route1:route11,
    names_to = "route_order",
    names_prefix = "route",
    values_to = "route") %>%
  drop_na(route)

subway_tidy_data
```

    ## # A tibble: 4,270 x 9
    ##   line  station_name station_location vending entry entrance_type ada  
    ##   <chr> <chr>        <chr>            <chr>   <chr> <chr>         <lgl>
    ## 1 4 Av… 25th St      (40.660397, -73… YES     YES   Stair         FALSE
    ## 2 4 Av… 25th St      (40.660397, -73… YES     YES   Stair         FALSE
    ## 3 4 Av… 36th St      (40.655144, -74… YES     YES   Stair         FALSE
    ## # … with 4,267 more rows, and 2 more variables: route_order <chr>, route <chr>
…
